<svg width="60" height="60" viewBox="0 0 60 60" fill="none" xmlns="http://www.w3.org/2000/svg">
<g clip-path="url(#clip0_554:646)">
<path d="M40.315 32.55L31 40H18.5V37.5H28.6625C28.8886 37.4999 29.1104 37.4384 29.3044 37.3222C29.4983 37.206 29.6571 37.0393 29.7639 36.84C29.8706 36.6407 29.9212 36.4161 29.9104 36.1903C29.8996 35.9644 29.8278 35.7457 29.7025 35.5575L27.4825 32.2275C27.0271 31.542 26.4091 30.9799 25.6837 30.5912C24.9583 30.2026 24.148 29.9995 23.325 30H3.5C2.83696 30 2.20107 30.2634 1.73223 30.7322C1.26339 31.2011 1 31.837 1 32.5V47.5C1 48.8261 1.52678 50.0979 2.46447 51.0355C3.40215 51.9732 4.67392 52.5 6 52.5H30.0975C31.1665 52.5002 32.2232 52.272 33.1968 51.8304C34.1704 51.3889 35.0384 50.7444 35.7425 49.94L51 32.5L47.37 31.29C46.1824 30.8941 44.9145 30.802 43.6821 31.0221C42.4498 31.2422 41.2922 31.7675 40.315 32.55ZM44.145 18.475C45.2725 17.3125 45.97 15.705 45.97 13.93C45.97 12.155 45.2725 10.5475 44.145 9.385C43.5748 8.78995 42.8902 8.31624 42.1324 7.99232C41.3746 7.6684 40.5591 7.50094 39.735 7.5C39.735 7.5 36.625 7.4925 33.5 10.715C30.375 7.4925 27.265 7.5 27.265 7.5C26.4411 7.50105 25.6259 7.66831 24.8681 7.99177C24.1104 8.31523 23.4257 8.78824 22.855 9.3825C21.7275 10.5475 21.03 12.1525 21.03 13.9275C21.03 15.7025 21.7275 17.3125 22.855 18.4725L33.5 30L44.145 18.475Z" fill="#59A5DB"/>
</g>
<defs>
<clipPath id="clip0_554:646">
<rect width="60" height="60" fill="white"/>
</clipPath>
</defs>
</svg>
